<?xml version="1.0" encoding="utf-8"?>
<!-- Generator: Adobe Illustrator 27.6.1, SVG Export Plug-In . SVG Version: 6.00 Build 0)  -->
<svg version="1.1" id="Layer_1" xmlns="http://www.w3.org/2000/svg" xmlns:xlink="http://www.w3.org/1999/xlink" x="0px" y="0px"
	 viewBox="0 0 426.7 194.3" style="enable-background:new 0 0 426.7 194.3;" xml:space="preserve">
<style type="text/css">
	.st0{fill:#2294D2;}
	.st1{fill:#5FC8D8;}
	.st2{fill:#0F87B2;}
	.st3{fill:#3DABE1;}
</style>
<path class="st0" d="M11.1,190.9H8.2c-3.9,0-7.1-3.2-7.1-7.1V9.3c0-3.9,3.2-7.1,7.1-7.1h2.9c3.9,0,7.1,3.2,7.1,7.1v174.6
	C18.2,187.7,15,190.9,11.1,190.9z"/>
<path class="st1" d="M185,190.9h-2.9c-3.9,0-7.1-3.2-7.1-7.1V9.3c0-3.9,3.2-7.1,7.1-7.1h2.9c3.9,0,7.1,3.2,7.1,7.1v174.6
	C192,187.7,188.9,190.9,185,190.9z"/>
<path class="st2" d="M399.2,190.9h-0.9c-3.4,0-6.2-2.8-6.2-6.2V8.5c0-3.4,2.8-6.2,6.2-6.2h0.9c3.4,0,6.2,2.8,6.2,6.2v176.2
	C405.4,188.1,402.6,190.9,399.2,190.9z"/>
<path class="st3" d="M357.5,190.9H182.8c-4.3,0-7.8-3.5-7.8-7.8v0c0-4.3,3.5-7.8,7.8-7.8h174.7c4.3,0,7.8,3.5,7.8,7.8v0
	C365.3,187.4,361.8,190.9,357.5,190.9z"/>
<path class="st1" d="M141.2,16.5H8.7c-3.9,0-7.1-3.2-7.1-7.1v0c0-3.9,3.2-7.1,7.1-7.1h132.5c3.9,0,7.1,3.2,7.1,7.1v0
	C148.3,13.3,145.1,16.5,141.2,16.5z"/>
<path class="st1" d="M141.2,94.4H8.7c-3.9,0-7.1-3.2-7.1-7.1v0c0-3.9,3.2-7.1,7.1-7.1h132.5c3.9,0,7.1,3.2,7.1,7.1v0
	C148.3,91.2,145.1,94.4,141.2,94.4z"/>
</svg>
